[gd_scene load_steps=2 format=2]

[ext_resource path="res://Scripts/Globals.gd" type="Script" id=1]

[node name="Globals" type="Node" index="0"]

script = ExtResource( 1 )

[node name="Hours" type="Timer" parent="." index="0"]

process_mode = 1
wait_time = 1.0
one_shot = false
autostart = false

[node name="Seconds" type="Timer" parent="Hours" index="0"]

process_mode = 1
wait_time = 1.0
one_shot = false
autostart = false


