[gd_scene load_steps=3 format=2]

[ext_resource path="res://Scenes/Script_PlayerInventory.gd" type="Script" id=1]
[ext_resource path="res://Hider.tscn" type="PackedScene" id=2]

[node name="Inventory" type="CanvasLayer" index="0"]

layer = 1
offset = Vector2( 0, 0 )
rotation = 0.0
scale = Vector2( 1, 1 )
transform = Transform2D( 1, 0, 0, 1, 0, 0 )
script = ExtResource( 1 )

[node name="Hider" parent="." index="0" instance=ExtResource( 2 )]

visible = true


