[gd_scene load_steps=5 format=2]

[ext_resource path="res://Scripts/RPGSection.gd" type="Script" id=1]
[ext_resource path="res://Scenes/PatientPond.tscn" type="PackedScene" id=2]
[ext_resource path="res://Scripts/Player.gd" type="Script" id=3]
[ext_resource path="res://Scenes/Player.tscn" type="PackedScene" id=4]

[node name="RPGSection" type="Node2D" index="0"]

script = ExtResource( 1 )

[node name="PatientPond" parent="." index="0" instance=ExtResource( 2 )]

[node name="Pla" type="KinematicBody2D" parent="PatientPond" index="4"]

visible = false
position = Vector2( 871.427, 171.461 )
input_pickable = false
collision_layer = 1
collision_mask = 1
collision/safe_margin = 0.08
script = ExtResource( 3 )
_sections_unfolded = [ "Collision", "collision" ]
SPEED = 5

[node name="Player" parent="PatientPond" index="6" instance=ExtResource( 4 )]


